; ModuleID = 'probe1.56ebf6f4-cgu.0'
source_filename = "probe1.56ebf6f4-cgu.0"
target datalayout = "e-m:e-p:32:32-i64:64-n32:64-S128"
target triple = "wasm32-unknown-unknown"

; core::f64::<impl f64>::to_int_unchecked
; Function Attrs: inlinehint nounwind
define hidden i32 @"_ZN4core3f6421_$LT$impl$u20$f64$GT$16to_int_unchecked17h1d3694116a28c7e3E"(double %self) unnamed_addr #0 {
start:
; call <f64 as core::convert::num::FloatToInt<i32>>::to_int_unchecked
  %0 = call i32 @"_ZN65_$LT$f64$u20$as$u20$core..convert..num..FloatToInt$LT$i32$GT$$GT$16to_int_unchecked17hce223f579bee0f46E"(double %self)
  br label %bb1

bb1:                                              ; preds = %start
  ret i32 %0
}

; <f64 as core::convert::num::FloatToInt<i32>>::to_int_unchecked
; Function Attrs: inlinehint nounwind
define internal i32 @"_ZN65_$LT$f64$u20$as$u20$core..convert..num..FloatToInt$LT$i32$GT$$GT$16to_int_unchecked17hce223f579bee0f46E"(double %self) unnamed_addr #0 {
start:
  %0 = alloca i32, align 4
  %1 = call i32 @llvm.wasm.trunc.signed.i32.f64(double %self)
  store i32 %1, i32* %0, align 4
  %2 = load i32, i32* %0, align 4
  br label %bb1

bb1:                                              ; preds = %start
  ret i32 %2
}

; probe1::probe
; Function Attrs: nounwind
define hidden void @_ZN6probe15probe17h4c635ac760564483E() unnamed_addr #1 {
start:
; call core::f64::<impl f64>::to_int_unchecked
  %_1 = call i32 @"_ZN4core3f6421_$LT$impl$u20$f64$GT$16to_int_unchecked17h1d3694116a28c7e3E"(double 1.000000e+00)
  br label %bb1

bb1:                                              ; preds = %start
  ret void
}

; Function Attrs: nounwind readnone
declare i32 @llvm.wasm.trunc.signed.i32.f64(double) #2

attributes #0 = { inlinehint nounwind "target-cpu"="generic" }
attributes #1 = { nounwind "target-cpu"="generic" }
attributes #2 = { nounwind readnone }
