; ModuleID = 'probe1.56ebf6f4-cgu.0'
source_filename = "probe1.56ebf6f4-cgu.0"
target datalayout = "e-m:e-p:32:32-i64:64-n32:64-S128"
target triple = "wasm32-unknown-unknown"

%"std::fmt::Formatter" = type { [0 x i32], i32, [0 x i32], i32, [0 x i32], { i32, i32 }, [0 x i32], { i32, i32 }, [0 x i32], { {}*, [3 x i32]* }, [0 x i8], i8, [3 x i8] }
%"core::fmt::Opaque" = type {}
%"std::fmt::Arguments" = type { [0 x i32], { [0 x { [0 x i8]*, i32 }]*, i32 }, [0 x i32], { i32*, i32 }, [0 x i32], { [0 x { i8*, i32* }]*, i32 }, [0 x i32] }
%"std::string::String" = type { [0 x i32], %"std::vec::Vec<u8>", [0 x i32] }
%"std::vec::Vec<u8>" = type { [0 x i32], { i8*, i32 }, [0 x i32], i32, [0 x i32] }
%"std::marker::PhantomData<u8>" = type {}
%"std::ptr::metadata::PtrRepr<[u8]>" = type { [2 x i32] }
%"std::option::Option<(std::ptr::NonNull<u8>, std::alloc::Layout)>" = type { [0 x i32], {}*, [2 x i32] }
%"std::option::Option<(std::ptr::NonNull<u8>, std::alloc::Layout)>::Some" = type { [0 x i32], { [0 x i32], i8*, [0 x i32], { i32, i32 }, [0 x i32] }, [0 x i32] }
%"std::alloc::Global" = type {}

@alloc1 = private unnamed_addr constant <{ [0 x i8] }> zeroinitializer, align 1
@alloc2 = private unnamed_addr constant <{ i8*, [4 x i8] }> <{ i8* getelementptr inbounds (<{ [0 x i8] }>, <{ [0 x i8] }>* @alloc1, i32 0, i32 0, i32 0), [4 x i8] zeroinitializer }>, align 4
@alloc4 = private unnamed_addr constant <{ [4 x i8] }> zeroinitializer, align 4

; <core::ptr::non_null::NonNull<T> as core::convert::From<core::ptr::unique::Unique<T>>>::from
; Function Attrs: inlinehint nounwind
define hidden nonnull i8* @"_ZN119_$LT$core..ptr..non_null..NonNull$LT$T$GT$$u20$as$u20$core..convert..From$LT$core..ptr..unique..Unique$LT$T$GT$$GT$$GT$4from17h5316e51d9952adb5E"(i8* nonnull %unique) unnamed_addr #0 {
start:
; call core::ptr::unique::Unique<T>::as_ptr
  %_2 = call i8* @"_ZN4core3ptr6unique15Unique$LT$T$GT$6as_ptr17h4799b31884bed682E"(i8* nonnull %unique)
  br label %bb1

bb1:                                              ; preds = %start
; call core::ptr::non_null::NonNull<T>::new_unchecked
  %0 = call nonnull i8* @"_ZN4core3ptr8non_null16NonNull$LT$T$GT$13new_unchecked17hd849fbb7e8a3c104E"(i8* %_2)
  br label %bb2

bb2:                                              ; preds = %bb1
  ret i8* %0
}

; core::fmt::ArgumentV1::new
; Function Attrs: nounwind
define hidden { i8*, i32* } @_ZN4core3fmt10ArgumentV13new17h6c8542dcc1463543E(i32* align 4 dereferenceable(4) %x, i1 (i32*, %"std::fmt::Formatter"*)* nonnull %f) unnamed_addr #1 {
start:
  %0 = alloca %"core::fmt::Opaque"*, align 4
  %1 = alloca i1 (%"core::fmt::Opaque"*, %"std::fmt::Formatter"*)*, align 4
  %2 = alloca { i8*, i32* }, align 4
  %3 = bitcast i1 (i32*, %"std::fmt::Formatter"*)* %f to i1 (%"core::fmt::Opaque"*, %"std::fmt::Formatter"*)*
  store i1 (%"core::fmt::Opaque"*, %"std::fmt::Formatter"*)* %3, i1 (%"core::fmt::Opaque"*, %"std::fmt::Formatter"*)** %1, align 4
  %_3 = load i1 (%"core::fmt::Opaque"*, %"std::fmt::Formatter"*)*, i1 (%"core::fmt::Opaque"*, %"std::fmt::Formatter"*)** %1, align 4, !nonnull !0
  br label %bb1

bb1:                                              ; preds = %start
  %4 = bitcast i32* %x to %"core::fmt::Opaque"*
  store %"core::fmt::Opaque"* %4, %"core::fmt::Opaque"** %0, align 4
  %_5 = load %"core::fmt::Opaque"*, %"core::fmt::Opaque"** %0, align 4, !nonnull !0
  br label %bb2

bb2:                                              ; preds = %bb1
  %5 = bitcast { i8*, i32* }* %2 to %"core::fmt::Opaque"**
  store %"core::fmt::Opaque"* %_5, %"core::fmt::Opaque"** %5, align 4
  %6 = getelementptr inbounds { i8*, i32* }, { i8*, i32* }* %2, i32 0, i32 1
  %7 = bitcast i32** %6 to i1 (%"core::fmt::Opaque"*, %"std::fmt::Formatter"*)**
  store i1 (%"core::fmt::Opaque"*, %"std::fmt::Formatter"*)* %_3, i1 (%"core::fmt::Opaque"*, %"std::fmt::Formatter"*)** %7, align 4
  %8 = getelementptr inbounds { i8*, i32* }, { i8*, i32* }* %2, i32 0, i32 0
  %9 = load i8*, i8** %8, align 4, !nonnull !0
  %10 = getelementptr inbounds { i8*, i32* }, { i8*, i32* }* %2, i32 0, i32 1
  %11 = load i32*, i32** %10, align 4, !nonnull !0
  %12 = insertvalue { i8*, i32* } undef, i8* %9, 0
  %13 = insertvalue { i8*, i32* } %12, i32* %11, 1
  ret { i8*, i32* } %13
}

; core::fmt::Arguments::new_v1
; Function Attrs: inlinehint nounwind
define internal void @_ZN4core3fmt9Arguments6new_v117h72a69e94a6767a91E(%"std::fmt::Arguments"* noalias nocapture sret(%"std::fmt::Arguments") dereferenceable(24) %0, [0 x { [0 x i8]*, i32 }]* nonnull align 4 %pieces.0, i32 %pieces.1, [0 x { i8*, i32* }]* nonnull align 4 %args.0, i32 %args.1) unnamed_addr #0 {
start:
  %_4 = alloca { i32*, i32 }, align 4
  %1 = bitcast { i32*, i32 }* %_4 to {}**
  store {}* null, {}** %1, align 4
  %2 = bitcast %"std::fmt::Arguments"* %0 to { [0 x { [0 x i8]*, i32 }]*, i32 }*
  %3 = getelementptr inbounds { [0 x { [0 x i8]*, i32 }]*, i32 }, { [0 x { [0 x i8]*, i32 }]*, i32 }* %2, i32 0, i32 0
  store [0 x { [0 x i8]*, i32 }]* %pieces.0, [0 x { [0 x i8]*, i32 }]** %3, align 4
  %4 = getelementptr inbounds { [0 x { [0 x i8]*, i32 }]*, i32 }, { [0 x { [0 x i8]*, i32 }]*, i32 }* %2, i32 0, i32 1
  store i32 %pieces.1, i32* %4, align 4
  %5 = getelementptr inbounds %"std::fmt::Arguments", %"std::fmt::Arguments"* %0, i32 0, i32 3
  %6 = getelementptr inbounds { i32*, i32 }, { i32*, i32 }* %_4, i32 0, i32 0
  %7 = load i32*, i32** %6, align 4
  %8 = getelementptr inbounds { i32*, i32 }, { i32*, i32 }* %_4, i32 0, i32 1
  %9 = load i32, i32* %8, align 4
  %10 = getelementptr inbounds { i32*, i32 }, { i32*, i32 }* %5, i32 0, i32 0
  store i32* %7, i32** %10, align 4
  %11 = getelementptr inbounds { i32*, i32 }, { i32*, i32 }* %5, i32 0, i32 1
  store i32 %9, i32* %11, align 4
  %12 = getelementptr inbounds %"std::fmt::Arguments", %"std::fmt::Arguments"* %0, i32 0, i32 5
  %13 = getelementptr inbounds { [0 x { i8*, i32* }]*, i32 }, { [0 x { i8*, i32* }]*, i32 }* %12, i32 0, i32 0
  store [0 x { i8*, i32* }]* %args.0, [0 x { i8*, i32* }]** %13, align 4
  %14 = getelementptr inbounds { [0 x { i8*, i32* }]*, i32 }, { [0 x { i8*, i32* }]*, i32 }* %12, i32 0, i32 1
  store i32 %args.1, i32* %14, align 4
  ret void
}

; core::num::nonzero::NonZeroUsize::new_unchecked
; Function Attrs: inlinehint nounwind
define internal i32 @_ZN4core3num7nonzero12NonZeroUsize13new_unchecked17h6fdbb992b8e365e0E(i32 %n) unnamed_addr #0 {
start:
  %0 = alloca i32, align 4
  store i32 %n, i32* %0, align 4
  %1 = load i32, i32* %0, align 4, !range !1
  ret i32 %1
}

; core::num::nonzero::NonZeroUsize::get
; Function Attrs: inlinehint nounwind
define internal i32 @_ZN4core3num7nonzero12NonZeroUsize3get17h23eb254df0cbcd6bE(i32 %self) unnamed_addr #0 {
start:
  ret i32 %self
}

; core::ptr::slice_from_raw_parts_mut
; Function Attrs: inlinehint nounwind
define hidden { [0 x i8]*, i32 } @_ZN4core3ptr24slice_from_raw_parts_mut17h741ed520af451ff5E(i8* %data, i32 %len) unnamed_addr #0 {
start:
  %0 = bitcast i8* %data to {}*
  br label %bb1

bb1:                                              ; preds = %start
; call core::ptr::metadata::from_raw_parts_mut
  %1 = call { [0 x i8]*, i32 } @_ZN4core3ptr8metadata18from_raw_parts_mut17hbc40b7c9051412ccE({}* %0, i32 %len)
  %2 = extractvalue { [0 x i8]*, i32 } %1, 0
  %3 = extractvalue { [0 x i8]*, i32 } %1, 1
  br label %bb2

bb2:                                              ; preds = %bb1
  %4 = insertvalue { [0 x i8]*, i32 } undef, [0 x i8]* %2, 0
  %5 = insertvalue { [0 x i8]*, i32 } %4, i32 %3, 1
  ret { [0 x i8]*, i32 } %5
}

; core::ptr::drop_in_place<alloc::string::String>
; Function Attrs: nounwind
define hidden void @"_ZN4core3ptr42drop_in_place$LT$alloc..string..String$GT$17hb40eb5a329181cb5E"(%"std::string::String"* %_1) unnamed_addr #1 {
start:
  %0 = bitcast %"std::string::String"* %_1 to %"std::vec::Vec<u8>"*
; call core::ptr::drop_in_place<alloc::vec::Vec<u8>>
  call void @"_ZN4core3ptr46drop_in_place$LT$alloc..vec..Vec$LT$u8$GT$$GT$17hba265a49baf7a021E"(%"std::vec::Vec<u8>"* %0)
  br label %bb1

bb1:                                              ; preds = %start
  ret void
}

; core::ptr::drop_in_place<alloc::vec::Vec<u8>>
; Function Attrs: nounwind
define hidden void @"_ZN4core3ptr46drop_in_place$LT$alloc..vec..Vec$LT$u8$GT$$GT$17hba265a49baf7a021E"(%"std::vec::Vec<u8>"* %_1) unnamed_addr #1 {
start:
; call <alloc::vec::Vec<T,A> as core::ops::drop::Drop>::drop
  call void @"_ZN70_$LT$alloc..vec..Vec$LT$T$C$A$GT$$u20$as$u20$core..ops..drop..Drop$GT$4drop17h0efc13147808be25E"(%"std::vec::Vec<u8>"* align 4 dereferenceable(12) %_1)
  br label %bb2

bb2:                                              ; preds = %start
  %0 = bitcast %"std::vec::Vec<u8>"* %_1 to { i8*, i32 }*
; call core::ptr::drop_in_place<alloc::raw_vec::RawVec<u8>>
  call void @"_ZN4core3ptr53drop_in_place$LT$alloc..raw_vec..RawVec$LT$u8$GT$$GT$17h02ec0bae8529bed1E"({ i8*, i32 }* %0)
  br label %bb1

bb1:                                              ; preds = %bb2
  ret void
}

; core::ptr::drop_in_place<alloc::raw_vec::RawVec<u8>>
; Function Attrs: nounwind
define hidden void @"_ZN4core3ptr53drop_in_place$LT$alloc..raw_vec..RawVec$LT$u8$GT$$GT$17h02ec0bae8529bed1E"({ i8*, i32 }* %_1) unnamed_addr #1 {
start:
; call <alloc::raw_vec::RawVec<T,A> as core::ops::drop::Drop>::drop
  call void @"_ZN77_$LT$alloc..raw_vec..RawVec$LT$T$C$A$GT$$u20$as$u20$core..ops..drop..Drop$GT$4drop17ha004917886f8be48E"({ i8*, i32 }* align 4 dereferenceable(8) %_1)
  br label %bb1

bb1:                                              ; preds = %start
  ret void
}

; core::ptr::unique::Unique<T>::new_unchecked
; Function Attrs: inlinehint nounwind
define hidden nonnull i8* @"_ZN4core3ptr6unique15Unique$LT$T$GT$13new_unchecked17hf5645a59a4121bafE"(i8* %ptr) unnamed_addr #0 {
start:
  %0 = alloca i8*, align 4
  store i8* %ptr, i8** %0, align 4
  %1 = bitcast i8** %0 to %"std::marker::PhantomData<u8>"*
  %2 = load i8*, i8** %0, align 4, !nonnull !0
  ret i8* %2
}

; core::ptr::unique::Unique<T>::cast
; Function Attrs: inlinehint nounwind
define hidden nonnull i8* @"_ZN4core3ptr6unique15Unique$LT$T$GT$4cast17h03d41ead2713a2e2E"(i8* nonnull %self) unnamed_addr #0 {
start:
; call core::ptr::unique::Unique<T>::as_ptr
  %_3 = call i8* @"_ZN4core3ptr6unique15Unique$LT$T$GT$6as_ptr17h4799b31884bed682E"(i8* nonnull %self)
  br label %bb1

bb1:                                              ; preds = %start
; call core::ptr::unique::Unique<T>::new_unchecked
  %0 = call nonnull i8* @"_ZN4core3ptr6unique15Unique$LT$T$GT$13new_unchecked17hf5645a59a4121bafE"(i8* %_3)
  br label %bb2

bb2:                                              ; preds = %bb1
  ret i8* %0
}

; core::ptr::unique::Unique<T>::as_ptr
; Function Attrs: inlinehint nounwind
define hidden i8* @"_ZN4core3ptr6unique15Unique$LT$T$GT$6as_ptr17h4799b31884bed682E"(i8* nonnull %self) unnamed_addr #0 {
start:
  ret i8* %self
}

; core::ptr::mut_ptr::<impl *mut T>::guaranteed_eq
; Function Attrs: inlinehint nounwind
define hidden zeroext i1 @"_ZN4core3ptr7mut_ptr31_$LT$impl$u20$$BP$mut$u20$T$GT$13guaranteed_eq17h5ad5ec49da14511cE"(i8* %self, i8* %other) unnamed_addr #0 {
start:
  %0 = alloca i8, align 1
  %1 = icmp eq i8* %self, %other
  %2 = zext i1 %1 to i8
  store i8 %2, i8* %0, align 1
  %3 = load i8, i8* %0, align 1, !range !2
  %4 = trunc i8 %3 to i1
  br label %bb1

bb1:                                              ; preds = %start
  ret i1 %4
}

; core::ptr::mut_ptr::<impl *mut T>::is_null
; Function Attrs: inlinehint nounwind
define hidden zeroext i1 @"_ZN4core3ptr7mut_ptr31_$LT$impl$u20$$BP$mut$u20$T$GT$7is_null17hde7de892f9b8da39E"(i8* %self) unnamed_addr #0 {
start:
  br label %bb1

bb1:                                              ; preds = %start
; call core::ptr::mut_ptr::<impl *mut T>::guaranteed_eq
  %0 = call zeroext i1 @"_ZN4core3ptr7mut_ptr31_$LT$impl$u20$$BP$mut$u20$T$GT$13guaranteed_eq17h5ad5ec49da14511cE"(i8* %self, i8* null)
  br label %bb2

bb2:                                              ; preds = %bb1
  ret i1 %0
}

; core::ptr::metadata::from_raw_parts_mut
; Function Attrs: inlinehint nounwind
define hidden { [0 x i8]*, i32 } @_ZN4core3ptr8metadata18from_raw_parts_mut17hbc40b7c9051412ccE({}* %data_address, i32 %metadata) unnamed_addr #0 {
start:
  %_4 = alloca { i8*, i32 }, align 4
  %_3 = alloca %"std::ptr::metadata::PtrRepr<[u8]>", align 4
  %0 = bitcast { i8*, i32 }* %_4 to {}**
  store {}* %data_address, {}** %0, align 4
  %1 = getelementptr inbounds { i8*, i32 }, { i8*, i32 }* %_4, i32 0, i32 1
  store i32 %metadata, i32* %1, align 4
  %2 = bitcast %"std::ptr::metadata::PtrRepr<[u8]>"* %_3 to { i8*, i32 }*
  %3 = getelementptr inbounds { i8*, i32 }, { i8*, i32 }* %_4, i32 0, i32 0
  %4 = load i8*, i8** %3, align 4
  %5 = getelementptr inbounds { i8*, i32 }, { i8*, i32 }* %_4, i32 0, i32 1
  %6 = load i32, i32* %5, align 4
  %7 = getelementptr inbounds { i8*, i32 }, { i8*, i32 }* %2, i32 0, i32 0
  store i8* %4, i8** %7, align 4
  %8 = getelementptr inbounds { i8*, i32 }, { i8*, i32 }* %2, i32 0, i32 1
  store i32 %6, i32* %8, align 4
  %9 = bitcast %"std::ptr::metadata::PtrRepr<[u8]>"* %_3 to { [0 x i8]*, i32 }*
  %10 = getelementptr inbounds { [0 x i8]*, i32 }, { [0 x i8]*, i32 }* %9, i32 0, i32 0
  %11 = load [0 x i8]*, [0 x i8]** %10, align 4
  %12 = getelementptr inbounds { [0 x i8]*, i32 }, { [0 x i8]*, i32 }* %9, i32 0, i32 1
  %13 = load i32, i32* %12, align 4
  %14 = insertvalue { [0 x i8]*, i32 } undef, [0 x i8]* %11, 0
  %15 = insertvalue { [0 x i8]*, i32 } %14, i32 %13, 1
  ret { [0 x i8]*, i32 } %15
}

; core::ptr::non_null::NonNull<T>::new_unchecked
; Function Attrs: inlinehint nounwind
define hidden nonnull i8* @"_ZN4core3ptr8non_null16NonNull$LT$T$GT$13new_unchecked17hd849fbb7e8a3c104E"(i8* %ptr) unnamed_addr #0 {
start:
  %0 = alloca i8*, align 4
  store i8* %ptr, i8** %0, align 4
  %1 = load i8*, i8** %0, align 4, !nonnull !0
  ret i8* %1
}

; core::ptr::non_null::NonNull<T>::as_ptr
; Function Attrs: inlinehint nounwind
define hidden i8* @"_ZN4core3ptr8non_null16NonNull$LT$T$GT$6as_ptr17h5aad14fe4ff10e08E"(i8* nonnull %self) unnamed_addr #0 {
start:
  ret i8* %self
}

; core::alloc::layout::Layout::from_size_align_unchecked
; Function Attrs: inlinehint nounwind
define internal { i32, i32 } @_ZN4core5alloc6layout6Layout25from_size_align_unchecked17hb11cc55c055b07eeE(i32 %size, i32 %align) unnamed_addr #0 {
start:
  %0 = alloca { i32, i32 }, align 4
; call core::num::nonzero::NonZeroUsize::new_unchecked
  %_4 = call i32 @_ZN4core3num7nonzero12NonZeroUsize13new_unchecked17h6fdbb992b8e365e0E(i32 %align), !range !1
  br label %bb1

bb1:                                              ; preds = %start
  %1 = bitcast { i32, i32 }* %0 to i32*
  store i32 %size, i32* %1, align 4
  %2 = getelementptr inbounds { i32, i32 }, { i32, i32 }* %0, i32 0, i32 1
  store i32 %_4, i32* %2, align 4
  %3 = getelementptr inbounds { i32, i32 }, { i32, i32 }* %0, i32 0, i32 0
  %4 = load i32, i32* %3, align 4
  %5 = getelementptr inbounds { i32, i32 }, { i32, i32 }* %0, i32 0, i32 1
  %6 = load i32, i32* %5, align 4, !range !1
  %7 = insertvalue { i32, i32 } undef, i32 %4, 0
  %8 = insertvalue { i32, i32 } %7, i32 %6, 1
  ret { i32, i32 } %8
}

; core::alloc::layout::Layout::size
; Function Attrs: inlinehint nounwind
define internal i32 @_ZN4core5alloc6layout6Layout4size17h24af05901048ecb4E({ i32, i32 }* align 4 dereferenceable(8) %self) unnamed_addr #0 {
start:
  %0 = bitcast { i32, i32 }* %self to i32*
  %1 = load i32, i32* %0, align 4
  ret i32 %1
}

; core::alloc::layout::Layout::align
; Function Attrs: inlinehint nounwind
define internal i32 @_ZN4core5alloc6layout6Layout5align17hc63f561d25f5b524E({ i32, i32 }* align 4 dereferenceable(8) %self) unnamed_addr #0 {
start:
  %0 = getelementptr inbounds { i32, i32 }, { i32, i32 }* %self, i32 0, i32 1
  %_2 = load i32, i32* %0, align 4, !range !1
; call core::num::nonzero::NonZeroUsize::get
  %1 = call i32 @_ZN4core3num7nonzero12NonZeroUsize3get17h23eb254df0cbcd6bE(i32 %_2)
  br label %bb1

bb1:                                              ; preds = %start
  ret i32 %1
}

; <T as core::convert::Into<U>>::into
; Function Attrs: nounwind
define hidden nonnull i8* @"_ZN50_$LT$T$u20$as$u20$core..convert..Into$LT$U$GT$$GT$4into17h9665fa4ca384b8f7E"(i8* nonnull %self) unnamed_addr #1 {
start:
; call <core::ptr::non_null::NonNull<T> as core::convert::From<core::ptr::unique::Unique<T>>>::from
  %0 = call nonnull i8* @"_ZN119_$LT$core..ptr..non_null..NonNull$LT$T$GT$$u20$as$u20$core..convert..From$LT$core..ptr..unique..Unique$LT$T$GT$$GT$$GT$4from17h5316e51d9952adb5E"(i8* nonnull %self)
  br label %bb1

bb1:                                              ; preds = %start
  ret i8* %0
}

; alloc::vec::Vec<T,A>::as_mut_ptr
; Function Attrs: inlinehint nounwind
define hidden i8* @"_ZN5alloc3vec16Vec$LT$T$C$A$GT$10as_mut_ptr17hccedb0459281734bE"(%"std::vec::Vec<u8>"* align 4 dereferenceable(12) %self) unnamed_addr #0 {
start:
  %_2 = bitcast %"std::vec::Vec<u8>"* %self to { i8*, i32 }*
; call alloc::raw_vec::RawVec<T,A>::ptr
  %ptr = call i8* @"_ZN5alloc7raw_vec19RawVec$LT$T$C$A$GT$3ptr17h4343a5e24ac0994aE"({ i8*, i32 }* align 4 dereferenceable(8) %_2)
  br label %bb1

bb1:                                              ; preds = %start
; call core::ptr::mut_ptr::<impl *mut T>::is_null
  %_5 = call zeroext i1 @"_ZN4core3ptr7mut_ptr31_$LT$impl$u20$$BP$mut$u20$T$GT$7is_null17hde7de892f9b8da39E"(i8* %ptr)
  br label %bb2

bb2:                                              ; preds = %bb1
  %_4 = xor i1 %_5, true
  call void @llvm.assume(i1 %_4)
  br label %bb3

bb3:                                              ; preds = %bb2
  ret i8* %ptr
}

; alloc::alloc::dealloc
; Function Attrs: inlinehint nounwind
define internal void @_ZN5alloc5alloc7dealloc17h99df5ba8062ae751E(i8* %ptr, i32 %0, i32 %1) unnamed_addr #0 {
start:
  %layout = alloca { i32, i32 }, align 4
  %2 = getelementptr inbounds { i32, i32 }, { i32, i32 }* %layout, i32 0, i32 0
  store i32 %0, i32* %2, align 4
  %3 = getelementptr inbounds { i32, i32 }, { i32, i32 }* %layout, i32 0, i32 1
  store i32 %1, i32* %3, align 4
; call core::alloc::layout::Layout::size
  %_4 = call i32 @_ZN4core5alloc6layout6Layout4size17h24af05901048ecb4E({ i32, i32 }* align 4 dereferenceable(8) %layout)
  br label %bb1

bb1:                                              ; preds = %start
; call core::alloc::layout::Layout::align
  %_6 = call i32 @_ZN4core5alloc6layout6Layout5align17hc63f561d25f5b524E({ i32, i32 }* align 4 dereferenceable(8) %layout)
  br label %bb2

bb2:                                              ; preds = %bb1
  call void @__rust_dealloc(i8* %ptr, i32 %_4, i32 %_6)
  br label %bb3

bb3:                                              ; preds = %bb2
  ret void
}

; alloc::raw_vec::RawVec<T,A>::current_memory
; Function Attrs: nounwind
define hidden void @"_ZN5alloc7raw_vec19RawVec$LT$T$C$A$GT$14current_memory17hfefa180d38235357E"(%"std::option::Option<(std::ptr::NonNull<u8>, std::alloc::Layout)>"* noalias nocapture sret(%"std::option::Option<(std::ptr::NonNull<u8>, std::alloc::Layout)>") dereferenceable(12) %0, { i8*, i32 }* align 4 dereferenceable(8) %self) unnamed_addr #1 {
start:
  %1 = alloca i32, align 4
  %_13 = alloca { [0 x i32], i8*, [0 x i32], { i32, i32 }, [0 x i32] }, align 4
  %_2 = alloca i8, align 1
  br label %bb4

bb4:                                              ; preds = %start
  %2 = icmp eq i32 1, 0
  br i1 %2, label %bb1, label %bb2

bb1:                                              ; preds = %bb4
  store i8 1, i8* %_2, align 1
  br label %bb3

bb2:                                              ; preds = %bb4
  %3 = getelementptr inbounds { i8*, i32 }, { i8*, i32 }* %self, i32 0, i32 1
  %_5 = load i32, i32* %3, align 4
  %_4 = icmp eq i32 %_5, 0
  %4 = zext i1 %_4 to i8
  store i8 %4, i8* %_2, align 1
  br label %bb3

bb3:                                              ; preds = %bb1, %bb2
  %5 = load i8, i8* %_2, align 1, !range !2
  %6 = trunc i8 %5 to i1
  br i1 %6, label %bb5, label %bb6

bb6:                                              ; preds = %bb3
  store i32 1, i32* %1, align 4
  %7 = load i32, i32* %1, align 4
  br label %bb7

bb5:                                              ; preds = %bb3
  %8 = bitcast %"std::option::Option<(std::ptr::NonNull<u8>, std::alloc::Layout)>"* %0 to {}**
  store {}* null, {}** %8, align 4
  br label %bb12

bb12:                                             ; preds = %bb11, %bb5
  ret void

bb7:                                              ; preds = %bb6
  br label %bb8

bb8:                                              ; preds = %bb7
  %9 = getelementptr inbounds { i8*, i32 }, { i8*, i32 }* %self, i32 0, i32 1
  %_9 = load i32, i32* %9, align 4
  %size = mul i32 1, %_9
; call core::alloc::layout::Layout::from_size_align_unchecked
  %10 = call { i32, i32 } @_ZN4core5alloc6layout6Layout25from_size_align_unchecked17hb11cc55c055b07eeE(i32 %size, i32 %7)
  %layout.0 = extractvalue { i32, i32 } %10, 0
  %layout.1 = extractvalue { i32, i32 } %10, 1
  br label %bb9

bb9:                                              ; preds = %bb8
  %11 = bitcast { i8*, i32 }* %self to i8**
  %_16 = load i8*, i8** %11, align 4, !nonnull !0
; call core::ptr::unique::Unique<T>::cast
  %_15 = call nonnull i8* @"_ZN4core3ptr6unique15Unique$LT$T$GT$4cast17h03d41ead2713a2e2E"(i8* nonnull %_16)
  br label %bb10

bb10:                                             ; preds = %bb9
; call <T as core::convert::Into<U>>::into
  %_14 = call nonnull i8* @"_ZN50_$LT$T$u20$as$u20$core..convert..Into$LT$U$GT$$GT$4into17h9665fa4ca384b8f7E"(i8* nonnull %_15)
  br label %bb11

bb11:                                             ; preds = %bb10
  %12 = bitcast { [0 x i32], i8*, [0 x i32], { i32, i32 }, [0 x i32] }* %_13 to i8**
  store i8* %_14, i8** %12, align 4
  %13 = getelementptr inbounds { [0 x i32], i8*, [0 x i32], { i32, i32 }, [0 x i32] }, { [0 x i32], i8*, [0 x i32], { i32, i32 }, [0 x i32] }* %_13, i32 0, i32 3
  %14 = getelementptr inbounds { i32, i32 }, { i32, i32 }* %13, i32 0, i32 0
  store i32 %layout.0, i32* %14, align 4
  %15 = getelementptr inbounds { i32, i32 }, { i32, i32 }* %13, i32 0, i32 1
  store i32 %layout.1, i32* %15, align 4
  %16 = bitcast %"std::option::Option<(std::ptr::NonNull<u8>, std::alloc::Layout)>"* %0 to %"std::option::Option<(std::ptr::NonNull<u8>, std::alloc::Layout)>::Some"*
  %17 = bitcast %"std::option::Option<(std::ptr::NonNull<u8>, std::alloc::Layout)>::Some"* %16 to { [0 x i32], i8*, [0 x i32], { i32, i32 }, [0 x i32] }*
  %18 = bitcast { [0 x i32], i8*, [0 x i32], { i32, i32 }, [0 x i32] }* %17 to i8*
  %19 = bitcast { [0 x i32], i8*, [0 x i32], { i32, i32 }, [0 x i32] }* %_13 to i8*
  call void @llvm.memcpy.p0i8.p0i8.i32(i8* align 4 %18, i8* align 4 %19, i32 12, i1 false)
  br label %bb12
}

; alloc::raw_vec::RawVec<T,A>::ptr
; Function Attrs: inlinehint nounwind
define hidden i8* @"_ZN5alloc7raw_vec19RawVec$LT$T$C$A$GT$3ptr17h4343a5e24ac0994aE"({ i8*, i32 }* align 4 dereferenceable(8) %self) unnamed_addr #0 {
start:
  %0 = bitcast { i8*, i32 }* %self to i8**
  %_2 = load i8*, i8** %0, align 4, !nonnull !0
; call core::ptr::unique::Unique<T>::as_ptr
  %1 = call i8* @"_ZN4core3ptr6unique15Unique$LT$T$GT$6as_ptr17h4799b31884bed682E"(i8* nonnull %_2)
  br label %bb1

bb1:                                              ; preds = %start
  ret i8* %1
}

; <alloc::alloc::Global as core::alloc::Allocator>::deallocate
; Function Attrs: inlinehint nounwind
define internal void @"_ZN63_$LT$alloc..alloc..Global$u20$as$u20$core..alloc..Allocator$GT$10deallocate17hbc898cbc2c85582dE"(%"std::alloc::Global"* nonnull align 1 %self, i8* nonnull %ptr, i32 %0, i32 %1) unnamed_addr #0 {
start:
  %layout = alloca { i32, i32 }, align 4
  %2 = getelementptr inbounds { i32, i32 }, { i32, i32 }* %layout, i32 0, i32 0
  store i32 %0, i32* %2, align 4
  %3 = getelementptr inbounds { i32, i32 }, { i32, i32 }* %layout, i32 0, i32 1
  store i32 %1, i32* %3, align 4
; call core::alloc::layout::Layout::size
  %_4 = call i32 @_ZN4core5alloc6layout6Layout4size17h24af05901048ecb4E({ i32, i32 }* align 4 dereferenceable(8) %layout)
  br label %bb1

bb1:                                              ; preds = %start
  %4 = icmp eq i32 %_4, 0
  br i1 %4, label %bb3, label %bb2

bb3:                                              ; preds = %bb1
  br label %bb6

bb2:                                              ; preds = %bb1
; call core::ptr::non_null::NonNull<T>::as_ptr
  %_6 = call i8* @"_ZN4core3ptr8non_null16NonNull$LT$T$GT$6as_ptr17h5aad14fe4ff10e08E"(i8* nonnull %ptr)
  br label %bb4

bb4:                                              ; preds = %bb2
  %5 = getelementptr inbounds { i32, i32 }, { i32, i32 }* %layout, i32 0, i32 0
  %_8.0 = load i32, i32* %5, align 4
  %6 = getelementptr inbounds { i32, i32 }, { i32, i32 }* %layout, i32 0, i32 1
  %_8.1 = load i32, i32* %6, align 4, !range !1
; call alloc::alloc::dealloc
  call void @_ZN5alloc5alloc7dealloc17h99df5ba8062ae751E(i8* %_6, i32 %_8.0, i32 %_8.1)
  br label %bb5

bb5:                                              ; preds = %bb4
  br label %bb6

bb6:                                              ; preds = %bb3, %bb5
  ret void
}

; <alloc::vec::Vec<T,A> as core::ops::drop::Drop>::drop
; Function Attrs: nounwind
define hidden void @"_ZN70_$LT$alloc..vec..Vec$LT$T$C$A$GT$$u20$as$u20$core..ops..drop..Drop$GT$4drop17h0efc13147808be25E"(%"std::vec::Vec<u8>"* align 4 dereferenceable(12) %self) unnamed_addr #1 {
start:
; call alloc::vec::Vec<T,A>::as_mut_ptr
  %_3 = call i8* @"_ZN5alloc3vec16Vec$LT$T$C$A$GT$10as_mut_ptr17hccedb0459281734bE"(%"std::vec::Vec<u8>"* align 4 dereferenceable(12) %self)
  br label %bb1

bb1:                                              ; preds = %start
  %0 = getelementptr inbounds %"std::vec::Vec<u8>", %"std::vec::Vec<u8>"* %self, i32 0, i32 3
  %_5 = load i32, i32* %0, align 4
; call core::ptr::slice_from_raw_parts_mut
  %1 = call { [0 x i8]*, i32 } @_ZN4core3ptr24slice_from_raw_parts_mut17h741ed520af451ff5E(i8* %_3, i32 %_5)
  %_2.0 = extractvalue { [0 x i8]*, i32 } %1, 0
  %_2.1 = extractvalue { [0 x i8]*, i32 } %1, 1
  br label %bb2

bb2:                                              ; preds = %bb1
  br label %bb3

bb3:                                              ; preds = %bb2
  ret void
}

; <alloc::raw_vec::RawVec<T,A> as core::ops::drop::Drop>::drop
; Function Attrs: nounwind
define hidden void @"_ZN77_$LT$alloc..raw_vec..RawVec$LT$T$C$A$GT$$u20$as$u20$core..ops..drop..Drop$GT$4drop17ha004917886f8be48E"({ i8*, i32 }* align 4 dereferenceable(8) %self) unnamed_addr #1 {
start:
  %_2 = alloca %"std::option::Option<(std::ptr::NonNull<u8>, std::alloc::Layout)>", align 4
; call alloc::raw_vec::RawVec<T,A>::current_memory
  call void @"_ZN5alloc7raw_vec19RawVec$LT$T$C$A$GT$14current_memory17hfefa180d38235357E"(%"std::option::Option<(std::ptr::NonNull<u8>, std::alloc::Layout)>"* noalias nocapture sret(%"std::option::Option<(std::ptr::NonNull<u8>, std::alloc::Layout)>") dereferenceable(12) %_2, { i8*, i32 }* align 4 dereferenceable(8) %self)
  br label %bb1

bb1:                                              ; preds = %start
  %0 = bitcast %"std::option::Option<(std::ptr::NonNull<u8>, std::alloc::Layout)>"* %_2 to {}**
  %1 = load {}*, {}** %0, align 4
  %2 = icmp eq {}* %1, null
  %_4 = select i1 %2, i32 0, i32 1
  %3 = icmp eq i32 %_4, 1
  br i1 %3, label %bb3, label %bb2

bb3:                                              ; preds = %bb1
  %4 = bitcast %"std::option::Option<(std::ptr::NonNull<u8>, std::alloc::Layout)>"* %_2 to %"std::option::Option<(std::ptr::NonNull<u8>, std::alloc::Layout)>::Some"*
  %5 = bitcast %"std::option::Option<(std::ptr::NonNull<u8>, std::alloc::Layout)>::Some"* %4 to { [0 x i32], i8*, [0 x i32], { i32, i32 }, [0 x i32] }*
  %6 = bitcast { [0 x i32], i8*, [0 x i32], { i32, i32 }, [0 x i32] }* %5 to i8**
  %ptr = load i8*, i8** %6, align 4, !nonnull !0
  %7 = bitcast %"std::option::Option<(std::ptr::NonNull<u8>, std::alloc::Layout)>"* %_2 to %"std::option::Option<(std::ptr::NonNull<u8>, std::alloc::Layout)>::Some"*
  %8 = bitcast %"std::option::Option<(std::ptr::NonNull<u8>, std::alloc::Layout)>::Some"* %7 to { [0 x i32], i8*, [0 x i32], { i32, i32 }, [0 x i32] }*
  %9 = getelementptr inbounds { [0 x i32], i8*, [0 x i32], { i32, i32 }, [0 x i32] }, { [0 x i32], i8*, [0 x i32], { i32, i32 }, [0 x i32] }* %8, i32 0, i32 3
  %10 = getelementptr inbounds { i32, i32 }, { i32, i32 }* %9, i32 0, i32 0
  %layout.0 = load i32, i32* %10, align 4
  %11 = getelementptr inbounds { i32, i32 }, { i32, i32 }* %9, i32 0, i32 1
  %layout.1 = load i32, i32* %11, align 4, !range !1
  %_7 = bitcast { i8*, i32 }* %self to %"std::alloc::Global"*
; call <alloc::alloc::Global as core::alloc::Allocator>::deallocate
  call void @"_ZN63_$LT$alloc..alloc..Global$u20$as$u20$core..alloc..Allocator$GT$10deallocate17hbc898cbc2c85582dE"(%"std::alloc::Global"* nonnull align 1 %_7, i8* nonnull %ptr, i32 %layout.0, i32 %layout.1)
  br label %bb4

bb2:                                              ; preds = %bb1
  br label %bb5

bb5:                                              ; preds = %bb4, %bb2
  ret void

bb4:                                              ; preds = %bb3
  br label %bb5
}

; probe1::probe
; Function Attrs: nounwind
define hidden void @_ZN6probe15probe17h4c635ac760564483E() unnamed_addr #1 {
start:
  %_11 = alloca i32*, align 4
  %_10 = alloca [1 x { i8*, i32* }], align 4
  %_3 = alloca %"std::fmt::Arguments", align 4
  %res = alloca %"std::string::String", align 4
  %_1 = alloca %"std::string::String", align 4
  store i32* bitcast (<{ [4 x i8] }>* @alloc4 to i32*), i32** %_11, align 4
  %arg0 = load i32*, i32** %_11, align 4, !nonnull !0
; call core::fmt::ArgumentV1::new
  %0 = call { i8*, i32* } @_ZN4core3fmt10ArgumentV13new17h6c8542dcc1463543E(i32* align 4 dereferenceable(4) %arg0, i1 (i32*, %"std::fmt::Formatter"*)* nonnull @"_ZN4core3fmt3num3imp55_$LT$impl$u20$core..fmt..LowerExp$u20$for$u20$isize$GT$3fmt17hc90ce1adf0e1170fE")
  %_14.0 = extractvalue { i8*, i32* } %0, 0
  %_14.1 = extractvalue { i8*, i32* } %0, 1
  br label %bb1

bb1:                                              ; preds = %start
  %1 = bitcast [1 x { i8*, i32* }]* %_10 to { i8*, i32* }*
  %2 = getelementptr inbounds { i8*, i32* }, { i8*, i32* }* %1, i32 0, i32 0
  store i8* %_14.0, i8** %2, align 4
  %3 = getelementptr inbounds { i8*, i32* }, { i8*, i32* }* %1, i32 0, i32 1
  store i32* %_14.1, i32** %3, align 4
  %_7.0 = bitcast [1 x { i8*, i32* }]* %_10 to [0 x { i8*, i32* }]*
; call core::fmt::Arguments::new_v1
  call void @_ZN4core3fmt9Arguments6new_v117h72a69e94a6767a91E(%"std::fmt::Arguments"* noalias nocapture sret(%"std::fmt::Arguments") dereferenceable(24) %_3, [0 x { [0 x i8]*, i32 }]* nonnull align 4 bitcast (<{ i8*, [4 x i8] }>* @alloc2 to [0 x { [0 x i8]*, i32 }]*), i32 1, [0 x { i8*, i32* }]* nonnull align 4 %_7.0, i32 1)
  br label %bb2

bb2:                                              ; preds = %bb1
; call alloc::fmt::format
  call void @_ZN5alloc3fmt6format17h1fe2914f5caa52c4E(%"std::string::String"* noalias nocapture sret(%"std::string::String") dereferenceable(12) %res, %"std::fmt::Arguments"* noalias nocapture dereferenceable(24) %_3)
  br label %bb3

bb3:                                              ; preds = %bb2
  %4 = bitcast %"std::string::String"* %_1 to i8*
  %5 = bitcast %"std::string::String"* %res to i8*
  call void @llvm.memcpy.p0i8.p0i8.i32(i8* align 4 %4, i8* align 4 %5, i32 12, i1 false)
; call core::ptr::drop_in_place<alloc::string::String>
  call void @"_ZN4core3ptr42drop_in_place$LT$alloc..string..String$GT$17hb40eb5a329181cb5E"(%"std::string::String"* %_1)
  br label %bb4

bb4:                                              ; preds = %bb3
  ret void
}

; Function Attrs: nofree nosync nounwind willreturn
declare void @llvm.assume(i1 noundef) #2

; Function Attrs: nounwind
declare dso_local void @__rust_dealloc(i8*, i32, i32) unnamed_addr #1

; Function Attrs: argmemonly nofree nosync nounwind willreturn
declare void @llvm.memcpy.p0i8.p0i8.i32(i8* noalias nocapture writeonly, i8* noalias nocapture readonly, i32, i1 immarg) #3

; core::fmt::num::imp::<impl core::fmt::LowerExp for isize>::fmt
; Function Attrs: nounwind
declare dso_local zeroext i1 @"_ZN4core3fmt3num3imp55_$LT$impl$u20$core..fmt..LowerExp$u20$for$u20$isize$GT$3fmt17hc90ce1adf0e1170fE"(i32* align 4 dereferenceable(4), %"std::fmt::Formatter"* align 4 dereferenceable(36)) unnamed_addr #1

; alloc::fmt::format
; Function Attrs: nounwind
declare dso_local void @_ZN5alloc3fmt6format17h1fe2914f5caa52c4E(%"std::string::String"* noalias nocapture sret(%"std::string::String") dereferenceable(12), %"std::fmt::Arguments"* noalias nocapture dereferenceable(24)) unnamed_addr #1

attributes #0 = { inlinehint nounwind "target-cpu"="generic" }
attributes #1 = { nounwind "target-cpu"="generic" }
attributes #2 = { nofree nosync nounwind willreturn }
attributes #3 = { argmemonly nofree nosync nounwind willreturn }

!0 = !{}
!1 = !{i32 1, i32 0}
!2 = !{i8 0, i8 2}
